{
  "resourceType": "Bundle",
  "id": "168af72aab0e2445ada5380fe36b5ed0",
  "meta": {
    "lastUpdated": "2019-10-26T18:41:28.9211069+00:00"
  },
  "type": "searchset",
  "link": [
    {
      "relation": "self",
      "url": "https://panoramic-dev.azurehealthcareapis.com/Location"
    }
  ],
  "entry": [
    {
      "fullUrl": "https://panoramic-dev.azurehealthcareapis.com/Location/bcd10071-993c-47dd-a3ca-cead3cbd5d95",
      "resource": {
        "resourceType": "Location",
        "id": "bcd10071-993c-47dd-a3ca-cead3cbd5d95",
        "meta": {
          "versionId": "3",
          "lastUpdated": "2019-10-25T05:44:02.071+00:00"
        },
        "status": "active",
        "name": "Electric City Pediatrics",
        "mode": "instance",
        "type": [
          {
            "coding": [
              {
                "system": "http://terminology.hl7.org/CodeSystem/v3-RoleCode",
                "code": "PEDU",
                "display": "Pediatric Unit"
              }
            ]
          }
        ],
        "telecom": [
          {
            "system": "phone",
            "value": "555-123-4567",
            "period": {
              "start": "2019-01-01"
            }
          }
        ],
        "address": {
          "type": "both",
          "line": [
            "123 ElectricCityPediatrics Road",
            "Suite 100"
          ],
          "city": "Scranton",
          "state": "PA",
          "postalCode": "18503",
          "country": "USA"
        },
        "physicalType": {
          "coding": [
            {
              "system": "http://terminology.hl7.org/CodeSystem/location-physical-type",
              "code": "bu",
              "display": "Building"
            }
          ]
        },
        "position": {
          "longitude": -75.655479,
          "latitude": 41.417363
        },
        "managingOrganization": {
          "reference": "Organization/2d73c4fb-bef4-42e6-83d9-ea5de62b4e2c",
          "display": "Scranton Health Network"
        }
      },
      "search": {
        "mode": "match"
      }
    },
    {
      "fullUrl": "https://panoramic-dev.azurehealthcareapis.com/Location/d2a38430-a370-444a-9ad7-28a9dc755c5f",
      "resource": {
        "resourceType": "Location",
        "id": "d2a38430-a370-444a-9ad7-28a9dc755c5f",
        "meta": {
          "versionId": "4",
          "lastUpdated": "2019-10-25T05:44:42.041+00:00"
        },
        "status": "active",
        "name": "Scranton Medical Center",
        "mode": "instance",
        "type": [
          {
            "coding": [
              {
                "system": "http://terminology.hl7.org/CodeSystem/v3-RoleCode",
                "code": "GIM",
                "display": "General internal medicine clinic"
              }
            ]
          }
        ],
        "telecom": [
          {
            "system": "phone",
            "value": "555-345-6789",
            "period": {
              "start": "2019-01-01"
            }
          }
        ],
        "address": {
          "type": "both",
          "line": [
            "123 ScrantonMedicalCenter Road",
            "Suite 200"
          ],
          "city": "Scranton",
          "state": "PA",
          "postalCode": "18503",
          "country": "USA"
        },
        "physicalType": {
          "coding": [
            {
              "system": "http://terminology.hl7.org/CodeSystem/location-physical-type",
              "code": "bu",
              "display": "Building"
            }
          ]
        },
        "position": {
          "longitude": -75.64489,
          "latitude": 41.407997
        },
        "managingOrganization": {
          "reference": "Organization/2d73c4fb-bef4-42e6-83d9-ea5de62b4e2c",
          "display": "Scranton Health Network"
        }
      },
      "search": {
        "mode": "match"
      }
    }
  ]
}