{
  "resourceType": "Bundle",
  "id": "3bb369417af3b64e98a60d8023a097ab",
  "meta": {
    "lastUpdated": "2019-10-26T18:40:50.8995523+00:00"
  },
  "type": "searchset",
  "link": [
    {
      "relation": "next",
      "url": "https://panoramic-dev.azurehealthcareapis.com/Practitioner?ct=eyJ0b2tlbiI6IitSSUQ6fkw1RXJBSTZUODhjaEFBQUFBQUFBQUE9PSNSVDoxI1RSQzoxMCNJU1Y6MiNJRU86NjU1NTEjRlBDOkFTRUFBQUFBQUFBQUlRQUFBQUFBQUFBPSIsInJhbmdlIjp7Im1pbiI6IiIsIm1heCI6IkZGIn19"
    },
    {
      "relation": "self",
      "url": "https://panoramic-dev.azurehealthcareapis.com/Practitioner"
    }
  ],
  "entry": [
    {
      "fullUrl": "https://panoramic-dev.azurehealthcareapis.com/Practitioner/f8b02ca3-f6bb-4b19-833f-500bf6a046bb",
      "resource": {
        "resourceType": "Practitioner",
        "id": "f8b02ca3-f6bb-4b19-833f-500bf6a046bb",
        "meta": {
          "versionId": "1",
          "lastUpdated": "2019-10-01T17:44:15.712+00:00"
        },
        "name": [
          {
            "use": "official",
            "family": "Smith",
            "given": [
              "Barbara",
              "Marie"
            ],
            "period": {
              "start": "2019-04-10"
            }
          }
        ],
        "telecom": [
          {
            "system": "email",
            "value": "barbarasmith@yahoo.com",
            "period": {
              "start": "2019-04-10"
            }
          },
          {
            "system": "sms",
            "value": "555-555-4440"
          }
        ],
        "address": [
          {
            "use": "home",
            "type": "both",
            "line": [
              "123 BarbaraSmith Road"
            ],
            "city": "Scranton",
            "state": "PA",
            "postalCode": "18503",
            "country": "USA",
            "period": {
              "start": "2019-04-10"
            }
          }
        ],
        "gender": "female",
        "birthDate": "1963-01-01"
      },
      "search": {
        "mode": "match"
      }
    },
    {
      "fullUrl": "https://panoramic-dev.azurehealthcareapis.com/Practitioner/9119529f-d027-41b9-8fc7-66dc7b75c233",
      "resource": {
        "resourceType": "Practitioner",
        "id": "9119529f-d027-41b9-8fc7-66dc7b75c233",
        "meta": {
          "versionId": "1",
          "lastUpdated": "2019-10-01T17:44:33.506+00:00"
        },
        "name": [
          {
            "use": "official",
            "family": "Jones",
            "given": [
              "Henry",
              "James"
            ],
            "period": {
              "start": "2019-03-13"
            }
          }
        ],
        "telecom": [
          {
            "system": "email",
            "value": "henryjones@hotmail.com",
            "period": {
              "start": "2019-03-13"
            }
          },
          {
            "system": "sms",
            "value": "555-555-3330"
          }
        ],
        "address": [
          {
            "use": "home",
            "type": "both",
            "line": [
              "123 HenryJones Road"
            ],
            "city": "Scranton",
            "state": "PA",
            "postalCode": "18503",
            "country": "USA",
            "period": {
              "start": "2019-03-13"
            }
          }
        ],
        "gender": "male",
        "birthDate": "1958-01-01"
      },
      "search": {
        "mode": "match"
      }
    },
    {
      "fullUrl": "https://panoramic-dev.azurehealthcareapis.com/Practitioner/8f2d0e99-09b0-4987-99e3-b39597ff30ee",
      "resource": {
        "resourceType": "Practitioner",
        "id": "8f2d0e99-09b0-4987-99e3-b39597ff30ee",
        "meta": {
          "versionId": "1",
          "lastUpdated": "2019-10-01T17:44:51.394+00:00"
        },
        "name": [
          {
            "use": "official",
            "family": "Knope",
            "given": [
              "Leslie",
              "Anne"
            ],
            "period": {
              "start": "2019-03-13"
            }
          }
        ],
        "telecom": [
          {
            "system": "email",
            "value": "lesleyknope@hotmail.com",
            "period": {
              "start": "2019-03-13"
            }
          },
          {
            "system": "sms",
            "value": "555-555-3339"
          }
        ],
        "address": [
          {
            "use": "home",
            "type": "both",
            "line": [
              "123 LeslieKnope Road"
            ],
            "city": "Scranton",
            "state": "PA",
            "postalCode": "18503",
            "country": "USA",
            "period": {
              "start": "2019-03-13"
            }
          }
        ],
        "gender": "female",
        "birthDate": "1970-01-01"
      },
      "search": {
        "mode": "match"
      }
    },
    {
      "fullUrl": "https://panoramic-dev.azurehealthcareapis.com/Practitioner/1863b9c6-2d45-4d0b-9a1b-c9ec46136844",
      "resource": {
        "resourceType": "Practitioner",
        "id": "1863b9c6-2d45-4d0b-9a1b-c9ec46136844",
        "meta": {
          "versionId": "1",
          "lastUpdated": "2019-10-01T17:45:13.671+00:00"
        },
        "name": [
          {
            "use": "official",
            "family": "Martin",
            "given": [
              "Angela"
            ],
            "period": {
              "start": "2019-06-20"
            }
          }
        ],
        "telecom": [
          {
            "system": "email",
            "value": "angelamartin@gmail.com",
            "period": {
              "start": "2019-06-20"
            }
          },
          {
            "system": "sms",
            "value": "555-555-3350"
          }
        ],
        "address": [
          {
            "use": "home",
            "type": "both",
            "line": [
              "123 AngelaMartin Road"
            ],
            "city": "Scranton",
            "state": "PA",
            "postalCode": "18503",
            "country": "USA",
            "period": {
              "start": "2019-04-10"
            }
          }
        ],
        "gender": "female",
        "birthDate": "1974-01-01"
      },
      "search": {
        "mode": "match"
      }
    },
    {
      "fullUrl": "https://panoramic-dev.azurehealthcareapis.com/Practitioner/56baea22-aa2c-49df-93e6-a4b07806cec2",
      "resource": {
        "resourceType": "Practitioner",
        "id": "56baea22-aa2c-49df-93e6-a4b07806cec2",
        "meta": {
          "versionId": "1",
          "lastUpdated": "2019-10-01T17:45:39.58+00:00"
        },
        "name": [
          {
            "use": "official",
            "family": "Kapoor",
            "given": [
              "Kelly",
              "Rajanigandha"
            ],
            "period": {
              "start": "2019-06-20"
            }
          }
        ],
        "telecom": [
          {
            "system": "email",
            "value": "kellykapoor@gmail.com",
            "period": {
              "start": "2019-06-20"
            }
          },
          {
            "system": "sms",
            "value": "555-555-3255"
          }
        ],
        "address": [
          {
            "use": "home",
            "type": "both",
            "line": [
              "123 KellyKapoor Road"
            ],
            "city": "Scranton",
            "state": "PA",
            "postalCode": "18503",
            "country": "USA",
            "period": {
              "start": "2019-06-20"
            }
          }
        ],
        "gender": "female",
        "birthDate": "1980-02-05"
      },
      "search": {
        "mode": "match"
      }
    },
    {
      "fullUrl": "https://panoramic-dev.azurehealthcareapis.com/Practitioner/6393ca34-7635-4d66-a375-4b6b494e06a3",
      "resource": {
        "resourceType": "Practitioner",
        "id": "6393ca34-7635-4d66-a375-4b6b494e06a3",
        "meta": {
          "versionId": "4",
          "lastUpdated": "2019-10-25T05:11:41.655+00:00"
        },
        "name": [
          {
            "use": "official",
            "text": "Barbara Smith",
            "family": "Smith",
            "given": [
              "Barbara",
              "Marie"
            ],
            "period": {
              "start": "2019-04-10"
            }
          }
        ],
        "telecom": [
          {
            "system": "email",
            "value": "barbarasmith@yahoo.com",
            "period": {
              "start": "2019-04-10"
            }
          },
          {
            "system": "phone",
            "value": "555-555-4440"
          }
        ],
        "address": [
          {
            "use": "home",
            "type": "both",
            "line": [
              "123 BarbaraSmith Road"
            ],
            "city": "Scranton",
            "state": "PA",
            "postalCode": "18503",
            "country": "USA",
            "period": {
              "start": "2019-04-10"
            }
          }
        ],
        "gender": "female",
        "birthDate": "1963-01-01",
        "communication": [
          {
            "coding": [
              {
                "system": "urn:ietf:bcp:47",
                "code": "en",
                "display": "English"
              }
            ]
          }
        ]
      },
      "search": {
        "mode": "match"
      }
    },
    {
      "fullUrl": "https://panoramic-dev.azurehealthcareapis.com/Practitioner/db9c5f28-59c3-49cc-91af-0f62e9b4de8b",
      "resource": {
        "resourceType": "Practitioner",
        "id": "db9c5f28-59c3-49cc-91af-0f62e9b4de8b",
        "meta": {
          "versionId": "4",
          "lastUpdated": "2019-10-25T05:03:48.462+00:00"
        },
        "name": [
          {
            "use": "official",
            "text": "Henry Jones",
            "family": "Jones",
            "given": [
              "Henry",
              "James"
            ],
            "period": {
              "start": "2019-03-13"
            }
          }
        ],
        "telecom": [
          {
            "system": "email",
            "value": "henryjones@hotmail.com",
            "period": {
              "start": "2019-03-13"
            }
          },
          {
            "system": "phone",
            "value": "555-555-3330"
          }
        ],
        "address": [
          {
            "use": "home",
            "type": "both",
            "line": [
              "123 HenryJones Road"
            ],
            "city": "Scranton",
            "state": "PA",
            "postalCode": "18503",
            "country": "USA",
            "period": {
              "start": "2019-03-13"
            }
          }
        ],
        "gender": "male",
        "birthDate": "1958-01-01",
        "communication": [
          {
            "coding": [
              {
                "system": "urn:ietf:bcp:47",
                "code": "en",
                "display": "English"
              }
            ]
          },
          {
            "coding": [
              {
                "system": "urn:ietf:bcp:47",
                "code": "es",
                "display": "Spanish"
              }
            ]
          }
        ]
      },
      "search": {
        "mode": "match"
      }
    },
    {
      "fullUrl": "https://panoramic-dev.azurehealthcareapis.com/Practitioner/c9cb0e64-d8a3-4735-828b-9f9249280601",
      "resource": {
        "resourceType": "Practitioner",
        "id": "c9cb0e64-d8a3-4735-828b-9f9249280601",
        "meta": {
          "versionId": "6",
          "lastUpdated": "2019-10-25T05:00:41.251+00:00"
        },
        "name": [
          {
            "use": "official",
            "text": "Leslie Knope",
            "family": "Knope",
            "given": [
              "Leslie",
              "Anne"
            ],
            "period": {
              "start": "2019-03-13"
            }
          }
        ],
        "telecom": [
          {
            "system": "email",
            "value": "lesleyknope@hotmail.com",
            "period": {
              "start": "2019-03-13"
            }
          },
          {
            "system": "phone",
            "value": "555-555-3339"
          }
        ],
        "address": [
          {
            "use": "home",
            "type": "both",
            "line": [
              "123 LeslieKnope Road"
            ],
            "city": "Scranton",
            "state": "PA",
            "postalCode": "18503",
            "country": "USA",
            "period": {
              "start": "2019-03-13"
            }
          }
        ],
        "gender": "female",
        "birthDate": "1970-01-01",
        "communication": [
          {
            "coding": [
              {
                "system": "urn:ietf:bcp:47",
                "code": "en",
                "display": "English"
              }
            ]
          },
          {
            "coding": [
              {
                "system": "urn:ietf:bcp:47",
                "code": "ru",
                "display": "Russian"
              }
            ]
          }
        ]
      },
      "search": {
        "mode": "match"
      }
    },
    {
      "fullUrl": "https://panoramic-dev.azurehealthcareapis.com/Practitioner/061b4ea0-3f1d-4461-8dab-6907a83a940b",
      "resource": {
        "resourceType": "Practitioner",
        "id": "061b4ea0-3f1d-4461-8dab-6907a83a940b",
        "meta": {
          "versionId": "2",
          "lastUpdated": "2019-10-04T02:58:15.647+00:00"
        },
        "name": [
          {
            "use": "official",
            "family": "Martin",
            "given": [
              "Angela"
            ],
            "period": {
              "start": "2019-06-20"
            }
          }
        ],
        "telecom": [
          {
            "system": "email",
            "value": "angelamartin@gmail.com",
            "period": {
              "start": "2019-06-20"
            }
          },
          {
            "system": "phone",
            "value": "555-555-3350"
          }
        ],
        "address": [
          {
            "use": "home",
            "type": "both",
            "line": [
              "123 AngelaMartin Road"
            ],
            "city": "Scranton",
            "state": "PA",
            "postalCode": "18503",
            "country": "USA",
            "period": {
              "start": "2019-04-10"
            }
          }
        ],
        "gender": "female",
        "birthDate": "1974-01-01"
      },
      "search": {
        "mode": "match"
      }
    },
    {
      "fullUrl": "https://panoramic-dev.azurehealthcareapis.com/Practitioner/3bb32a3f-5b56-4267-943f-dcabcaa222f1",
      "resource": {
        "resourceType": "Practitioner",
        "id": "3bb32a3f-5b56-4267-943f-dcabcaa222f1",
        "meta": {
          "versionId": "2",
          "lastUpdated": "2019-10-04T02:58:56.345+00:00"
        },
        "name": [
          {
            "use": "official",
            "family": "Kapoor",
            "given": [
              "Kelly",
              "Rajanigandha"
            ],
            "period": {
              "start": "2019-06-20"
            }
          }
        ],
        "telecom": [
          {
            "system": "email",
            "value": "kellykapoor@gmail.com",
            "period": {
              "start": "2019-06-20"
            }
          },
          {
            "system": "phone",
            "value": "555-555-3255"
          }
        ],
        "address": [
          {
            "use": "home",
            "type": "both",
            "line": [
              "123 KellyKapoor Road"
            ],
            "city": "Scranton",
            "state": "PA",
            "postalCode": "18503",
            "country": "USA",
            "period": {
              "start": "2019-06-20"
            }
          }
        ],
        "gender": "female",
        "birthDate": "1980-02-05"
      },
      "search": {
        "mode": "match"
      }
    }
  ]
}