{
  "resourceType": "Bundle",
  "id": "613e691cd2b813419d6311306d103858",
  "meta": {
    "lastUpdated": "2019-10-26T18:42:15.2851695+00:00"
  },
  "type": "searchset",
  "link": [
    {
      "relation": "next",
      "url": "https://panoramic-dev.azurehealthcareapis.com/Slot?ct=eyJ0b2tlbiI6IitSSUQ6fkw1RXJBSTZUODhkWEFBQUFBQUFBQUE9PSNSVDoxI1RSQzoxMCNJU1Y6MiNJRU86NjU1NTEjRlBDOkFWY0FBQUFBQUFBQWFnQUFBQUFBQUFBPSIsInJhbmdlIjp7Im1pbiI6IiIsIm1heCI6IkZGIn19"
    },
    {
      "relation": "self",
      "url": "https://panoramic-dev.azurehealthcareapis.com/Slot"
    }
  ],
  "entry": [
    {
      "fullUrl": "https://panoramic-dev.azurehealthcareapis.com/Slot/4e9c989f-a8d1-4b5c-b68e-286041457a8c",
      "resource": {
        "resourceType": "Slot",
        "id": "4e9c989f-a8d1-4b5c-b68e-286041457a8c",
        "meta": {
          "versionId": "1",
          "lastUpdated": "2019-10-01T20:25:57.065+00:00"
        },
        "schedule": {
          "reference": "Schedule/9a765706-0683-4435-ac18-3b4f9648f997"
        },
        "status": "busy",
        "start": "2019-06-01T08:00:00-07:00",
        "end": "2019-06-01T08:30:00-07:00"
      },
      "search": {
        "mode": "match"
      }
    },
    {
      "fullUrl": "https://panoramic-dev.azurehealthcareapis.com/Slot/d6bbf3ea-b90e-4d68-9f40-8a9ad7c0f66a",
      "resource": {
        "resourceType": "Slot",
        "id": "d6bbf3ea-b90e-4d68-9f40-8a9ad7c0f66a",
        "meta": {
          "versionId": "1",
          "lastUpdated": "2019-10-01T20:26:22.143+00:00"
        },
        "schedule": {
          "reference": "Schedule/9a765706-0683-4435-ac18-3b4f9648f997"
        },
        "status": "busy",
        "start": "2019-06-01T08:30:00-07:00",
        "end": "2019-06-01T09:00:00-07:00"
      },
      "search": {
        "mode": "match"
      }
    },
    {
      "fullUrl": "https://panoramic-dev.azurehealthcareapis.com/Slot/0cf80118-1d41-4c07-a915-06f77a5c8176",
      "resource": {
        "resourceType": "Slot",
        "id": "0cf80118-1d41-4c07-a915-06f77a5c8176",
        "meta": {
          "versionId": "2",
          "lastUpdated": "2019-10-15T02:40:51.145+00:00"
        },
        "schedule": {
          "reference": "Schedule/9a765706-0683-4435-ac18-3b4f9648f997"
        },
        "status": "free",
        "start": "2020-01-01T08:00:00-07:00",
        "end": "2020-01-01T08:30:00-07:00"
      },
      "search": {
        "mode": "match"
      }
    },
    {
      "fullUrl": "https://panoramic-dev.azurehealthcareapis.com/Slot/eb695e78-cd8a-4f91-b3d0-bd00ee7858a2",
      "resource": {
        "resourceType": "Slot",
        "id": "eb695e78-cd8a-4f91-b3d0-bd00ee7858a2",
        "meta": {
          "versionId": "2",
          "lastUpdated": "2019-10-15T02:41:19.09+00:00"
        },
        "schedule": {
          "reference": "Schedule/9a765706-0683-4435-ac18-3b4f9648f997"
        },
        "status": "free",
        "start": "2020-01-01T08:30:00-07:00",
        "end": "2020-01-01T09:00:00-07:00"
      },
      "search": {
        "mode": "match"
      }
    },
    {
      "fullUrl": "https://panoramic-dev.azurehealthcareapis.com/Slot/67b39b79-1651-49b6-b654-5c0566f55f7d",
      "resource": {
        "resourceType": "Slot",
        "id": "67b39b79-1651-49b6-b654-5c0566f55f7d",
        "meta": {
          "versionId": "2",
          "lastUpdated": "2019-10-15T02:41:49.394+00:00"
        },
        "schedule": {
          "reference": "Schedule/9a765706-0683-4435-ac18-3b4f9648f997"
        },
        "status": "free",
        "start": "2020-01-01T09:00:00-07:00",
        "end": "2020-01-01T09:30:00-07:00"
      },
      "search": {
        "mode": "match"
      }
    },
    {
      "fullUrl": "https://panoramic-dev.azurehealthcareapis.com/Slot/fc610fd1-3ab4-438f-aaaf-9f1799511338",
      "resource": {
        "resourceType": "Slot",
        "id": "fc610fd1-3ab4-438f-aaaf-9f1799511338",
        "meta": {
          "versionId": "2",
          "lastUpdated": "2019-10-15T02:42:14.525+00:00"
        },
        "schedule": {
          "reference": "Schedule/9a765706-0683-4435-ac18-3b4f9648f997"
        },
        "status": "free",
        "start": "2020-01-01T09:30:00-07:00",
        "end": "2020-01-01T10:00:00-07:00"
      },
      "search": {
        "mode": "match"
      }
    },
    {
      "fullUrl": "https://panoramic-dev.azurehealthcareapis.com/Slot/0a8bbee1-a2ca-4dc7-b31d-7e2f7038edeb",
      "resource": {
        "resourceType": "Slot",
        "id": "0a8bbee1-a2ca-4dc7-b31d-7e2f7038edeb",
        "meta": {
          "versionId": "2",
          "lastUpdated": "2019-10-15T02:45:41.263+00:00"
        },
        "schedule": {
          "reference": "Schedule/9a765706-0683-4435-ac18-3b4f9648f997"
        },
        "status": "busy",
        "start": "2020-01-01T10:00:00-07:00",
        "end": "2020-01-01T10:30:00-07:00"
      },
      "search": {
        "mode": "match"
      }
    },
    {
      "fullUrl": "https://panoramic-dev.azurehealthcareapis.com/Slot/354752d4-f4c0-449b-baab-008829d22f3e",
      "resource": {
        "resourceType": "Slot",
        "id": "354752d4-f4c0-449b-baab-008829d22f3e",
        "meta": {
          "versionId": "2",
          "lastUpdated": "2019-10-15T02:46:42.9+00:00"
        },
        "schedule": {
          "reference": "Schedule/9a765706-0683-4435-ac18-3b4f9648f997"
        },
        "status": "busy",
        "start": "2020-01-01T10:30:00-07:00",
        "end": "2020-01-01T11:00:00-07:00"
      },
      "search": {
        "mode": "match"
      }
    },
    {
      "fullUrl": "https://panoramic-dev.azurehealthcareapis.com/Slot/1dd14361-13bc-4468-914b-e7122f016446",
      "resource": {
        "resourceType": "Slot",
        "id": "1dd14361-13bc-4468-914b-e7122f016446",
        "meta": {
          "versionId": "2",
          "lastUpdated": "2019-10-15T02:48:28.271+00:00"
        },
        "schedule": {
          "reference": "Schedule/9a765706-0683-4435-ac18-3b4f9648f997"
        },
        "status": "free",
        "start": "2020-01-01T11:00:00-07:00",
        "end": "2020-01-01T11:30:00-07:00"
      },
      "search": {
        "mode": "match"
      }
    },
    {
      "fullUrl": "https://panoramic-dev.azurehealthcareapis.com/Slot/14b8e9bf-db02-4677-a886-8991f2bc4baa",
      "resource": {
        "resourceType": "Slot",
        "id": "14b8e9bf-db02-4677-a886-8991f2bc4baa",
        "meta": {
          "versionId": "2",
          "lastUpdated": "2019-10-15T02:49:57.992+00:00"
        },
        "schedule": {
          "reference": "Schedule/9a765706-0683-4435-ac18-3b4f9648f997"
        },
        "status": "free",
        "start": "2020-01-01T11:30:00-07:00",
        "end": "2020-01-01T12:00:00-07:00"
      },
      "search": {
        "mode": "match"
      }
    }
  ]
}